Investigating the Relationship Between Air Quality and Cancer Incidence in the United States - 3 Results
…
merged_data <- cancer_df %>%
  inner_join(pm_df, by = c("States.Code" = "statefips", "Year" = "year"))
merged_data <- merged_data %>%
  inner_join(ozone_df, by = c("States.Code" = "statefips", "Year" = "year2"))
write.csv(merged_data, "merged_DATA.csv")
merged_data

# A tibble: 489 × 6
   States.Code States  Year total_cancer_count avg_pm25_pop_pred avg_o3_pop_pred
         <int> <chr>  <dbl>              <dbl>             <dbl>           <dbl>
 1           1 Alaba…  2002               3627             11.9             40.8
 2           1 Alaba…  2003               3564             12.3             39.7
 3           1 Alaba…  2004               3804             12.3             39.6
 4           1 Alaba…  2005               3766             13.1             41.5
 5           1 Alaba…  2006               3829             13.0             44.0
 6           1 Alaba…  2007               3867             13.5             44.0
 7           1 Alaba…  2008               4130             11.5             40.6
 8           1 Alaba…  2009               4051              9.75            36.8
 9           1 Alaba…  2010               4037             10.6             41.2
10           1 Alaba…  2011               4018             10.3             40.9
# ℹ 479 more rows
…
